{
  "annotations": {
    "list": [
      {
        "$$hashKey": "object:527",
        "builtIn": 1,
        "datasource": "-- Grafana --",
        "enable": true,
        "hide": true,
        "iconColor": "rgba(0, 211, 255, 1)",
        "name": "Annotations & Alerts",
        "type": "dashboard"
      }
    ]
  },
  "editable": true,
  "gnetId": null,
  "graphTooltip": 0,
  "id": 8,
  "iteration": 1599407157615,
  "links": [],
  "panels": [
    {
      "cacheTimeout": null,
      "colorBackground": false,
      "colorValue": true,
      "colors": [
        "#d44a3a",
        "rgba(237, 129, 40, 0.89)",
        "#299c46"
      ],
      "datasource": "tribot",
      "decimals": 6,
      "format": "none",
      "gauge": {
        "maxValue": 100,
        "minValue": 0,
        "show": false,
        "thresholdLabels": false,
        "thresholdMarkers": true
      },
      "gridPos": {
        "h": 3,
        "w": 4,
        "x": 0,
        "y": 0
      },
      "id": 4,
      "interval": null,
      "links": [],
      "mappingType": 1,
      "mappingTypes": [
        {
          "name": "value to text",
          "value": 1
        },
        {
          "name": "range to text",
          "value": 2
        }
      ],
      "maxDataPoints": 100,
      "nullPointMode": "connected",
      "nullText": null,
      "postfix": "",
      "postfixFontSize": "50%",
      "prefix": "",
      "prefixFontSize": "50%",
      "rangeMaps": [
        {
          "from": "null",
          "text": "N/A",
          "to": "null"
        }
      ],
      "sparkline": {
        "fillColor": "rgba(31, 118, 189, 0.18)",
        "full": false,
        "lineColor": "rgb(31, 120, 193)",
        "show": false
      },
      "tableColumn": "",
      "targets": [
        {
          "format": "table",
          "group": [],
          "metricColumn": "none",
          "rawQuery": true,
          "rawSql": "SELECT sum(gross_profit) from deal_reports where timestamp >=$__timeFrom() and timestamp <$__timeTo() ",
          "refId": "A",
          "select": [
            [
              {
                "params": [
                  "start_amount"
                ],
                "type": "column"
              }
            ]
          ],
          "table": "deal_reports",
          "timeColumn": "\"timestamp\"",
          "timeColumnType": "timestamp",
          "where": [
            {
              "name": "$__timeFilter",
              "params": [],
              "type": "macro"
            }
          ]
        }
      ],
      "thresholds": "-0.01,0",
      "timeFrom": null,
      "timeShift": null,
      "title": "Total gross profit $currency",
      "type": "singlestat",
      "valueFontSize": "80%",
      "valueMaps": [
        {
          "op": "=",
          "text": "N/A",
          "value": "null"
        }
      ],
      "valueName": "current"
    },
    {
      "columns": [],
      "datasource": "tribot",
      "fontSize": "90%",
      "gridPos": {
        "h": 19,
        "w": 24,
        "x": 0,
        "y": 3
      },
      "hideTimeOverride": false,
      "id": 2,
      "links": [],
      "pageSize": null,
      "scroll": true,
      "showHeader": true,
      "sort": {
        "col": 0,
        "desc": true
      },
      "styles": [
        {
          "$$hashKey": "object:104",
          "alias": "Time",
          "align": "auto",
          "dateFormat": "YYYY-MM-DD HH:mm:ss",
          "pattern": "time",
          "type": "date"
        },
        {
          "$$hashKey": "object:105",
          "alias": "",
          "align": "auto",
          "colorMode": "row",
          "colors": [
            "rgba(245, 54, 54, 0.9)",
            "rgba(24, 37, 46, 0.78)",
            "rgba(50, 172, 45, 0.97)"
          ],
          "decimals": 6,
          "link": false,
          "pattern": "gross_profit",
          "thresholds": [
            "-0.001",
            "0.000001"
          ],
          "type": "number",
          "unit": "short"
        },
        {
          "$$hashKey": "object:106",
          "alias": "",
          "align": "auto",
          "colorMode": null,
          "colors": [
            "rgba(245, 54, 54, 0.9)",
            "rgba(237, 129, 40, 0.89)",
            "rgba(50, 172, 45, 0.97)"
          ],
          "dateFormat": "YYYY-MM-DD HH:mm:ss",
          "decimals": 2,
          "mappingType": 1,
          "pattern": "triangle",
          "preserveFormat": true,
          "sanitize": true,
          "thresholds": [],
          "type": "string",
          "unit": "short",
          "valueMaps": []
        },
        {
          "$$hashKey": "object:155",
          "alias": "",
          "align": "auto",
          "colorMode": null,
          "colors": [
            "rgba(245, 54, 54, 0.9)",
            "rgba(237, 129, 40, 0.89)",
            "rgba(50, 172, 45, 0.97)"
          ],
          "dateFormat": "YYYY-MM-DD HH:mm:ss",
          "decimals": 2,
          "link": true,
          "linkUrl": "/d/trideal/trideal?var-deal_uuid=${__cell}",
          "mappingType": 1,
          "pattern": "deal_uuid",
          "thresholds": [],
          "type": "string",
          "unit": "short"
        }
      ],
      "targets": [
        {
          "format": "table",
          "group": [],
          "hide": false,
          "metricColumn": "none",
          "rawQuery": true,
          "rawSql": "SELECT timestamp as \"time\",exchange, instance, server, deal_uuid,deal_data->'triangle' as \"triangle\", currency,status, gross_profit, start_amount, result_amount,\ndeal_data->'leg1-filled' as \"leg1-filled\", deal_data->'leg2-filled' as \"leg2-filled\", deal_data->'leg3-filled' as \"leg3-filled\",\ndeal_data->'leg1-order-updates' as \"l1-updates\", deal_data->'leg2-order-updates' as \"l2-updates\", deal_data->'leg3-order-updates' as \"l3-updates\" \n\nfrom deal_reports where timestamp >=$__timeFrom() and timestamp <$__timeTo() ",
          "refId": "A",
          "select": [
            [
              {
                "params": [
                  "start_amount"
                ],
                "type": "column"
              }
            ]
          ],
          "table": "deal_reports",
          "timeColumn": "\"timestamp\"",
          "timeColumnType": "timestamp",
          "where": [
            {
              "name": "$__timeFilter",
              "params": [],
              "type": "macro"
            }
          ]
        }
      ],
      "timeFrom": null,
      "timeShift": null,
      "title": "Deals",
      "transform": "table",
      "type": "table"
    }
  ],
  "schemaVersion": 22,
  "style": "dark",
  "tags": [],
  "templating": {
    "list": [
      {
        "allValue": null,
        "current": {
          "text": "ETH",
          "value": "ETH"
        },
        "datasource": "tribot",
        "definition": "select distinct(currency) from deal_reports where timestamp >=$__timeFrom() and timestamp <$__timeTo()",
        "hide": 0,
        "includeAll": false,
        "index": -1,
        "label": null,
        "multi": false,
        "name": "currency",
        "options": [],
        "query": "select distinct(currency) from deal_reports where timestamp >=$__timeFrom() and timestamp <$__timeTo()",
        "refresh": 1,
        "regex": "",
        "skipUrlSync": false,
        "sort": 0,
        "tagValuesQuery": "",
        "tags": [],
        "tagsQuery": "",
        "type": "query",
        "useTags": false
      },
      {
        "allValue": null,
        "current": {
          "text": "AI-TA1",
          "value": "AI-TA1"
        },
        "datasource": "tribot",
        "definition": "select distinct(server) from deal_reports where timestamp >=$__timeFrom() and timestamp <$__timeTo()",
        "hide": 0,
        "includeAll": false,
        "index": -1,
        "label": null,
        "multi": false,
        "name": "server",
        "options": [
          {
            "$$hashKey": "object:201",
            "selected": true,
            "text": "AI-TA1",
            "value": "AI-TA1"
          }
        ],
        "query": "",
        "refresh": 0,
        "regex": "",
        "skipUrlSync": false,
        "sort": 0,
        "tagValuesQuery": "",
        "tags": [],
        "tagsQuery": "",
        "type": "query",
        "useTags": false
      }
    ]
  },
  "time": {
    "from": "now/d",
    "to": "now/d"
  },
  "timepicker": {
    "refresh_intervals": [
      "5s",
      "10s",
      "30s",
      "1m",
      "5m",
      "15m",
      "30m",
      "1h",
      "2h",
      "1d"
    ],
    "time_options": [
      "5m",
      "15m",
      "1h",
      "6h",
      "12h",
      "24h",
      "2d",
      "7d",
      "30d"
    ]
  },
  "timezone": "",
  "title": "triarb",
  "uid": "triarb",
  "variables": {
    "list": []
  },
  "version": 5
}